STA 9750 Miniproject 1 – STA 9750 Submission Material
…
# Filter films that **climbed to #1** after debuting below #1
films_that_climbed <- film_rankings %>% 
  filter((debut_rank) > 1 & best_rank == 1) %>% 
    arrange(desc(most_recent_week_at_best)) # Sort so the most recent climbers are first

# View all films that climbed to #1
films_that_climbed

# A tibble: 45 × 5
   show_title             debut_week debut_rank best_rank most_recent_week_at_…¹
   <chr>                  <date>          <dbl>     <dbl> <date>                
 1 KPop Demon Hunters     2025-06-22          6         1 2025-10-12            
 2 Unknown Number: The H… 2025-08-31          4         1 2025-09-07            
 3 Plane                  2025-06-15          2         1 2025-06-22            
 4 The Wild Robot         2025-05-25          3         1 2025-06-01            
 5 Despicable Me 4        2025-03-02          2         1 2025-03-09            
 6 Aftermath              2021-08-08          4         1 2025-02-16            
 7 Despicable Me 2        2022-02-06          2         1 2025-01-12            
 8 Don't Move             2024-10-27          3         1 2024-11-03            
 9 The Garfield Movie     2024-09-22          4         1 2024-10-06            
10 Uglies                 2024-09-15          2         1 2024-09-22            
# ℹ 35 more rows
# ℹ abbreviated name: ¹​most_recent_week_at_best
…
Warning: There were 316 warnings in `summarise()`.
The first warning was:
ℹ In argument: `runtime_hours = max(runtime, na.rm = TRUE)`.
ℹ In group 1: `show_title = "'83"` `category = "Films"`.
Caused by warning in `max()`:
! no non-missing arguments to max; returning -Inf
ℹ Run `dplyr::last_dplyr_warnings()` to see the 315 remaining warnings.

india_summary

# A tibble: 801 × 6
   show_title     category total_hours_viewed total_weeks_in_top10 runtime_hours
   <chr>          <chr>                 <dbl>                <int>         <dbl>
 1 Stranger Thin… TV              10576060000                   19       -Inf   
 2 Squid Game     TV               8644700000                   40          8.32
 3 Money Heist    TV               5398950000                   15          0   
 4 Wednesday      TV               3948750000                   32          7.78
 5 Bridgerton     TV               3665980000                   17          8.5 
 6 Manifest       TV               2365870000                   17       -Inf   
 7 Ginny & Georg… TV               2232200000                   10         10.6 
 8 The Witcher    TV               1958670000                   14          8   
 9 You            TV               1801700000                   14          8.45
10 Sex Education  TV               1614820000                   12          8.1 
# ℹ 791 more rows
# ℹ 1 more variable: est_views <dbl>
…
