STA 9750 Miniproject 3 – STA 9750 Submission Material
…
Code

tree_counts <- tree_with_district %>%
  group_by(CounDist) %>% 
  summarise(n_trees = n()) %>%
  arrange(desc(n_trees))

tree_counts

Simple feature collection with 51 features and 2 fields
Geometry type: MULTIPOINT
Dimension:     XY
Bounding box:  xmin: -74.25448 ymin: 40.49891 xmax: -73.70139 ymax: 40.91292
Geodetic CRS:  WGS 84
# A tibble: 51 × 3
   CounDist n_trees                                                     geometry
      <int>   <int>                                             <MULTIPOINT [°]>
 1       50    5313 ((-74.0244 40.61755), (-74.02614 40.61519), (-74.02539 40.6…
 2       11    3354 ((-73.90238 40.91281), (-73.9024 40.91272), (-73.90243 40.9…
 3       10    2943 ((-73.91238 40.87039), (-73.91211 40.87056), (-73.91199 40.…
 4       51    2270 ((-74.14452 40.53772), (-74.14365 40.54), (-74.1445 40.5389…
 5       49    2151 ((-74.13039 40.60395), (-74.1303 40.60395), (-74.13013 40.6…
 6       33    2106 ((-73.95961 40.73231), (-73.95963 40.73247), (-73.95952 40.…
 7       48    1782 ((-73.93525 40.5853), (-73.93529 40.58552), (-73.9342 40.58…
 8       44    1693 ((-73.97463 40.59374), (-73.97286 40.59235), (-73.97256 40.…
 9       46    1392 ((-73.9066 40.59553), (-73.90675 40.59566), (-73.9069 40.59…
10        3    1309 ((-73.996 40.76749), (-73.99591 40.76761), (-73.99586 40.76…
# ℹ 41 more rows
…
dead_fraction_by_district

Simple feature collection with 51 features and 4 fields
Geometry type: MULTIPOINT
Dimension:     XY
Bounding box:  xmin: -74.25448 ymin: 40.49891 xmax: -73.70139 ymax: 40.91292
Geodetic CRS:  WGS 84
# A tibble: 51 × 5
   CounDist total_trees dead_trees dead_fraction                        geometry
      <int>       <int>      <int>         <dbl>                <MULTIPOINT [°]>
 1       23         785        271         0.345 ((-73.77803 40.72328), (-73.77…
 2       22         237         81         0.342 ((-73.94214 40.76236), (-73.90…
 3       32         754        254         0.337 ((-73.86115 40.57593), (-73.86…
 4       21         148         47         0.318 ((-73.8558 40.73691), (-73.858…
 5       26         278         88         0.317 ((-73.94083 40.7596), (-73.946…
 6       29         385        121         0.314 ((-73.84204 40.68848), (-73.84…
 7       27         467        142         0.304 ((-73.80742 40.70393), (-73.80…
 8       30         586        173         0.295 ((-73.90304 40.704), (-73.9023…
 9       24         560        158         0.282 ((-73.85075 40.73408), (-73.85…
10       19        1064        291         0.273 ((-73.84464 40.77192), (-73.84…
# ℹ 41 more rows
…
