STA 9750 Miniproject 4 – STA 9750 Submission Material
…
invisible(NULL)
print(payroll_long)

# A tibble: 558 × 2
   date       level
   <date>     <dbl>
 1 1979-01-01 88808
 2 1979-02-01 89055
 3 1979-03-01 89479
 4 1979-04-01 89417
 5 1979-05-01 89789
 6 1979-06-01 90108
 7 1979-07-01 90217
 8 1979-08-01 90300
 9 1979-09-01 90327
10 1979-10-01 90481
# ℹ 548 more rows
…
  return(result)
}

# Apply to all years and combine
years <- 1979:2025
ces_revisions <- map(years, ~extract_year_data(.x, html)) |>
  list_rbind()

# Filter through June 2025
ces_revisions <- ces_revisions |>
  filter(date <= ymd("2025-06-01"))

print(ces_revisions)

# A tibble: 558 × 4
   date       original final revision
   <date>        <dbl> <dbl>    <dbl>
 1 1979-01-01      325   243      -82
 2 1979-02-01      301   294       -7
 3 1979-03-01      324   445      121
 4 1979-04-01       72   -15      -87
 5 1979-05-01      171   291      120
 6 1979-06-01       97   225      128
 7 1979-07-01       44    87       43
 8 1979-08-01        2    49       47
 9 1979-09-01      135    41      -94
10 1979-10-01      306   179     -127
# ℹ 548 more rows
…
# ===== TASK 3: JOIN THE TABLES =====

# Join the two datasets on date
ces_combined <- payroll_long |>
  left_join(ces_revisions, by = "date")

# Check for any missing matches
#cat("\nRows with missing revision data:", sum(is.na(ces_combined$revision)), "\n")
#cat("Rows with missing level data:", sum(is.na(ces_combined$level)), "\n")

# View the results
print(ces_combined)

# A tibble: 558 × 5
   date       level original final revision
   <date>     <dbl>    <dbl> <dbl>    <dbl>
 1 1979-01-01 88808      325   243      -82
 2 1979-02-01 89055      301   294       -7
 3 1979-03-01 89479      324   445      121
 4 1979-04-01 89417       72   -15      -87
 5 1979-05-01 89789      171   291      120
 6 1979-06-01 90108       97   225      128
 7 1979-07-01 90217       44    87       43
 8 1979-08-01 90300        2    49       47
 9 1979-09-01 90327      135    41      -94
10 1979-10-01 90481      306   179     -127
# ℹ 548 more rows
…
Exploratory data analysis for statistics

# 4. Recent years focus (2020-2025)
ces_combined |>
  filter(year(date) >= 2020) |>
  select(date, original, final, revision) |>
  print()

# A tibble: 66 × 4
   date       original  final revision
   <date>        <dbl>  <dbl>    <dbl>
 1 2020-01-01      225    214      -11
 2 2020-02-01      273    251      -22
 3 2020-03-01     -701  -1373     -672
 4 2020-04-01   -20537 -20787     -250
 5 2020-05-01     2509   2725      216
 6 2020-06-01     4800   4781      -19
 7 2020-07-01     1763   1761       -2
 8 2020-08-01     1371   1493      122
 9 2020-09-01      661    711       50
10 2020-10-01      638    654       16
# ℹ 56 more rows
…
